
# 1 "mcc_generated_files/device_config.c"


# 50
#pragma config FOSC = HSMP
#pragma config PLLCFG = OFF
#pragma config PRICLKEN = ON
#pragma config FCMEN = OFF
#pragma config IESO = OFF


#pragma config PWRTEN = OFF
#pragma config BOREN = SBORDIS
#pragma config BORV = 190


#pragma config WDTEN = ON
#pragma config WDTPS = 4096


#pragma config CCP2MX = PORTC1
#pragma config PBADEN = ON
#pragma config CCP3MX = PORTB5
#pragma config HFOFST = ON
#pragma config T3CMX = PORTC0
#pragma config P2BMX = PORTD2
#pragma config MCLRE = EXTMCLR


#pragma config STVREN = ON
#pragma config LVP = OFF
#pragma config XINST = OFF
#pragma config DEBUG = OFF


#pragma config CP0 = OFF
#pragma config CP1 = OFF
#pragma config CP2 = OFF
#pragma config CP3 = OFF


#pragma config CPB = OFF
#pragma config CPD = OFF


#pragma config WRT0 = OFF
#pragma config WRT1 = OFF
#pragma config WRT2 = OFF
#pragma config WRT3 = OFF


#pragma config WRTC = OFF
#pragma config WRTB = OFF
#pragma config WRTD = OFF


#pragma config EBTR0 = OFF
#pragma config EBTR1 = OFF
#pragma config EBTR2 = OFF
#pragma config EBTR3 = OFF


#pragma config EBTRB = OFF
